Rock vs Hip-Hop & Pop
…
#Comparing vocabulary

n_words <- words %>% count(band, word, sort = TRUE)
n_words

## Warning: `...` is not empty.
## 
## We detected these problematic arguments:
## * `needs_dots`
## 
## These dots only exist to allow future extensions and should be empty.
## Did you misspecify an argument?

## # A tibble: 39,573 x 3
##    band               word      n
##    <chr>              <chr> <int>
##  1 The Rolling Stones baby    712
##  2 The Rolling Stones yeah    550
##  3 The Rolling Stones love    484
##  4 Queen              love    459
##  5 Chris Brown        girl    433
##  6 Aerosmith          yeah    377
##  7 Queen              yeah    365
##  8 Aerosmith          love    360
##  9 Rihanna            love    345
## 10 AC/DC              rock    330
## # ... with 39,563 more rows
…
## Joining, by = "band"

tfs

## Warning: `...` is not empty.
## 
## We detected these problematic arguments:
## * `needs_dots`
## 
## These dots only exist to allow future extensions and should be empty.
## Did you misspecify an argument?

## # A tibble: 39,573 x 5
##    band          word      n words     tf
##    <chr>         <chr> <int> <int>  <dbl>
##  1 Travis Scott  yeah     43   313 0.137 
##  2 Adele         love    111  2393 0.0464
##  3 Shawn Mendes  mercy    17   391 0.0435
##  4 Selena Gomez  love    306  7588 0.0403
##  5 John Legend   love    126  3142 0.0401
##  6 Chris Brown   girl    433 12000 0.0361
##  7 Shawn Mendes  baby     13   391 0.0332
##  8 Travis Scott  light    10   313 0.0319
##  9 One Direction na      237  7421 0.0319
## 10 Led Zeppelin  baby    176  5548 0.0317
## # ... with 39,563 more rows
…
## A LDA_VEM topic model with 20 topics.

topics1 <- tidy(lda1, matrix = "beta")
topics1

## Warning: `...` is not empty.
## 
## We detected these problematic arguments:
## * `needs_dots`
## 
## These dots only exist to allow future extensions and should be empty.
## Did you misspecify an argument?

## # A tibble: 287,260 x 3
##    topic term       beta
##    <int> <chr>     <dbl>
##  1     1 11x   1.03e-240
##  2     2 11x   5.19e-242
##  3     3 11x   2.34e-238
##  4     4 11x   1.21e-240
##  5     5 11x   2.20e-241
##  6     6 11x   6.60e-242
##  7     7 11x   4.75e-239
##  8     8 11x   2.13e-241
##  9     9 11x   8.32e-242
## 10    10 11x   1.10e-240
## # ... with 287,250 more rows
…
#which topics are associated with each singer (a document)?
gamma1 <- tidy(lda1, matrix = "gamma")
gamma1

## Warning: `...` is not empty.
## 
## We detected these problematic arguments:
## * `needs_dots`
## 
## These dots only exist to allow future extensions and should be empty.
## Did you misspecify an argument?

## # A tibble: 400 x 3
##    document     topic       gamma
##    <chr>        <int>       <dbl>
##  1 AC/DC            1 0.000000906
##  2 Adele            1 0.00000412 
##  3 Aerosmith        1 0.000000642
##  4 Chris Brown      1 0.000000898
##  5 Eagles           1 0.00000191 
##  6 Guns n Roses     1 0.00000133 
##  7 John Legend      1 0.00000333 
##  8 Led Zeppelin     1 0.00000185 
##  9 Metallica        1 0.554      
## 10 Miley Cyrus      1 0.00000312 
## # ... with 390 more rows
…
#assigning words in each document to a topic

bandsinger_assignments <- augment(lda1, data = bandsinger_dtm)
bandsinger_assignments

## Warning: `...` is not empty.
## 
## We detected these problematic arguments:
## * `needs_dots`
## 
## These dots only exist to allow future extensions and should be empty.
## Did you misspecify an argument?

## # A tibble: 29,738 x 4
##    document           term  count .topic
##    <chr>              <chr> <dbl>  <dbl>
##  1 AC/DC              11x       1     17
##  2 AC/DC              15        1     17
##  3 Adele              15        1      7
##  4 Chris Brown        15        1      6
##  5 Guns n Roses       15        1     20
##  6 AC/DC              24        1     17
##  7 Miley Cyrus        24        1      9
##  8 Selena Gomez       24        2      9
##  9 The Rolling Stones 24        2      2
## 10 AC/DC              3.00      1     17
## # ... with 29,728 more rows

bandsinger_assignments <- bandsinger_assignments %>% 
  inner_join(bandsinger_classifications, by = c(".topic" = "topic"))
bandsinger_assignments

## Warning: `...` is not empty.
## 
## We detected these problematic arguments:
## * `needs_dots`
## 
## These dots only exist to allow future extensions and should be empty.
## Did you misspecify an argument?

## # A tibble: 32,317 x 6
##    document.x   term  count .topic document.y   gamma
##    <chr>        <chr> <dbl>  <dbl> <chr>        <dbl>
##  1 AC/DC        11x       1     17 AC/DC        1.00 
##  2 AC/DC        15        1     17 AC/DC        1.00 
##  3 Adele        15        1      7 Adele        0.880
##  4 Chris Brown  15        1      6 Chris Brown  1.00 
##  5 Guns n Roses 15        1     20 Guns n Roses 1.00 
##  6 AC/DC        24        1     17 AC/DC        1.00 
##  7 Miley Cyrus  24        1      9 Miley Cyrus  1.00 
##  8 Miley Cyrus  24        1      9 Selena Gomez 1.00 
##  9 Selena Gomez 24        2      9 Miley Cyrus  1.00 
## 10 Selena Gomez 24        2      9 Selena Gomez 1.00 
## # ... with 32,307 more rows
…
## A LDA_VEM topic model with 3 topics.

topics2 <- tidy(lda2, matrix = "beta")
topics2

## Warning: `...` is not empty.
## 
## We detected these problematic arguments:
## * `needs_dots`
## 
## These dots only exist to allow future extensions and should be empty.
## Did you misspecify an argument?

## # A tibble: 43,089 x 3
##    topic term      beta
##    <int> <chr>    <dbl>
##  1     1 0     1.70e-22
##  2     2 0     1.38e-43
##  3     3 0     8.53e- 5
##  4     1 1     2.25e- 4
##  5     2 1     9.49e- 5
##  6     3 1     2.03e- 3
##  7     1 1'2   6.77e-23
##  8     2 1'2   2.62e-44
##  9     3 1'2   4.26e- 5
## 10     1 10    8.08e-25
## # ... with 43,079 more rows
…
#assigning words in each document to a topic

genre_assignments <- augment(lda2, data = genre_dtm)
genre_assignments

## Warning: `...` is not empty.
## 
## We detected these problematic arguments:
## * `needs_dots`
## 
## These dots only exist to allow future extensions and should be empty.
## Did you misspecify an argument?

## # A tibble: 19,108 x 4
##    document           term     count .topic
##    <chr>              <chr>    <dbl>  <dbl>
##  1 Hip-Hop/Pop Female 0            4      3
##  2 Hip-Hop/Pop Female 1           66      3
##  3 Hip-Hop/Pop Male   1           29      3
##  4 Rock               1           14      1
##  5 Hip-Hop/Pop Female 1'2          2      3
##  6 Hip-Hop/Pop Female 10           2      3
##  7 Hip-Hop/Pop Male   10           3      3
##  8 Hip-Hop/Pop Female 10,000ft     2      3
##  9 Hip-Hop/Pop Female 10s          1      3
## 10 Hip-Hop/Pop Female 11           2      3
## # ... with 19,098 more rows

genre_assignments <- genre_assignments %>% 
  inner_join(genre_classifications, by = c(".topic" = "topic"))
genre_assignments

## Warning: `...` is not empty.
## 
## We detected these problematic arguments:
## * `needs_dots`
## 
## These dots only exist to allow future extensions and should be empty.
## Did you misspecify an argument?

## # A tibble: 23,150 x 6
##    document.x         term  count .topic document.y         gamma
##    <chr>              <chr> <dbl>  <dbl> <chr>              <dbl>
##  1 Hip-Hop/Pop Female 0         4      3 Hip-Hop/Pop Female  1.00
##  2 Hip-Hop/Pop Female 0         4      3 Hip-Hop/Pop Male    1.00
##  3 Hip-Hop/Pop Female 1        66      3 Hip-Hop/Pop Female  1.00
##  4 Hip-Hop/Pop Female 1        66      3 Hip-Hop/Pop Male    1.00
##  5 Hip-Hop/Pop Male   1        29      3 Hip-Hop/Pop Female  1.00
##  6 Hip-Hop/Pop Male   1        29      3 Hip-Hop/Pop Male    1.00
##  7 Hip-Hop/Pop Female 1'2       2      3 Hip-Hop/Pop Female  1.00
##  8 Hip-Hop/Pop Female 1'2       2      3 Hip-Hop/Pop Male    1.00
##  9 Hip-Hop/Pop Female 10        2      3 Hip-Hop/Pop Female  1.00
## 10 Hip-Hop/Pop Female 10        2      3 Hip-Hop/Pop Male    1.00
## # ... with 23,140 more rows
…
